{
    "gmetadata": [
                  {
                  "gid": 890273,
                  "token": "8079b34da7",
                  "archiver_key": "403500--117f8285e71b280cdb6b7e25c6c73cd0a318baf6",
                  "title": "(C89) [Shinjugai (Takeda Hiromitsu)] Mana Tama Plus 3 (Love Plus) [Chinese] [空気系☆漢化]",
                  "title_jpn": "(C89) [真珠貝 (武田弘光)] マナタマプラス3 (ラブプラス) [中国翻訳]",
                  "category": "Doujinshi",
                  "thumb": "http://gt1.ehgt.org/d3/32/d33281b930b42d200c224de839e3ecd243322064-1019163-2805-1994-jpg_l.jpg",
                  "uploader": "NEET☆遥",
                  "posted": "1451882882",
                  "filecount": "57",
                  "filesize": 72046807,
                  "expunged": false,
                  "rating": "4.92",
                  "torrentcount": "2",
                  "tags": [
                           "chinese",
                           "translated",
                           "love plus",
                           "manaka takane",
                           "shinjugai",
                           "takeda hiromitsu",
                           "dilf",
                           "big breasts",
                           "lingerie",
                           "stockings",
                           "ahegao",
                           "netorare",
                           "moral degeneration",
                           "unusual pupils",
                           "nakadashi",
                           "hairy armpits",
                           "bikini",
                           "pig girl",
                           "schoolgirl uniform",
                           "swimsuit",
                           "group",
                           "mmf threesome",
                           "multi-work series"
                           ]
                  }
                  ]
}